﻿//  #SCRIPTNAME#.cs
//  ProductName #PRODUCTNAME#
//
//  Created by #AUTHOR# on #DATA#.

using UnityEngine;
using System.Collections;
using System.Collections.Generic;

/// <summary>
/// #SUMMARY#
/// </summary>
public class #SCRIPTNAME# : MonoBehaviour {

	//=================================================================================
	//初期化
	//=================================================================================

	private void Awake(){

	}

	private void Start(){

	}

	//=================================================================================
	//更新
	//=================================================================================

	private void Update () {
	
	}

}